^C:\USERS\FOKAM\ONEDRIVE\РАБОЧИЙ СТОЛ\C++\STRING\X64\DEBUG\STRING.OBJ
C:\USERS\FOKAM\ONEDRIVE\Рабочий стол\C++\STRING\X64\DEBUG\STRING.EXE
C:\USERS\FOKAM\ONEDRIVE\Рабочий стол\C++\STRING\X64\DEBUG\STRING.ILK
C:\USERS\FOKAM\ONEDRIVE\Рабочий стол\C++\STRING\X64\DEBUG\STRING.PDB
